<?xml version="1.0" standalone="no"?>
<!DOCTYPE svg PUBLIC "-//W3C//DTD SVG 20010904//EN"
 "http://www.w3.org/TR/2001/REC-SVG-20010904/DTD/svg10.dtd">
<svg version="1.0" xmlns="http://www.w3.org/2000/svg"
 width="700.000000pt" height="700.000000pt" viewBox="0 0 700.000000 700.000000"
 preserveAspectRatio="xMidYMid meet">
<metadata>
Created by potrace 1.11, written by Peter Selinger 2001-2013
</metadata>
<g transform="translate(0.000000,700.000000) scale(0.100000,-0.100000)"
fill="#000000" stroke="none">
<path d="M2189 6996 c-2 -2 -31 -6 -64 -9 -33 -3 -105 -16 -160 -27 -652 -142
-1170 -642 -1330 -1285 -21 -85 -21 -83 -38 -220 -15 -126 -15 -242 2 -273 18
-34 74 -71 114 -76 48 -6 116 29 141 72 13 23 20 57 21 105 22 643 445 1192
1055 1369 36 10 79 21 95 23 37 6 71 13 110 21 76 15 328 11 436 -8 376 -64
714 -271 935 -573 16 -22 32 -42 35 -45 12 -11 91 -153 120 -217 87 -194 120
-349 125 -578 3 -163 -6 -266 -35 -405 -6 -30 -13 -64 -15 -76 -6 -32 -44
-160 -73 -244 -100 -297 -281 -650 -511 -999 -87 -132 -237 -345 -304 -431
-15 -19 -65 -82 -110 -140 -45 -58 -84 -107 -87 -110 -3 -3 -24 -27 -46 -55
-43 -55 -269 -320 -294 -346 -9 -9 -56 -61 -106 -115 -207 -227 -547 -570
-824 -832 -149 -141 -166 -168 -152 -234 12 -51 27 -74 67 -98 l35 -22 1667
-2 1667 -1 1 -510 c0 -280 4 -527 8 -547 4 -23 19 -47 41 -67 75 -66 181 -48
224 38 17 33 19 72 19 536 1 275 1 512 1 526 l1 27 675 0 c765 0 719 -5 763
82 26 53 23 97 -11 147 -43 63 -25 62 -756 62 -366 1 -666 3 -669 5 -2 3 -4
1223 -4 2713 0 2609 -1 2709 -18 2744 -24 46 -61 70 -117 74 -60 5 -105 -18
-134 -69 l-23 -41 0 -2712 0 -2713 -1461 0 -1461 0 241 243 c132 133 272 276
310 318 131 141 180 195 245 269 36 40 72 81 80 89 34 36 232 274 313 376 48
61 91 115 96 121 106 130 385 533 487 704 177 295 311 565 394 795 17 50 36
99 40 110 17 41 73 247 84 310 9 47 25 137 31 170 9 55 18 189 17 275 0 295
-62 552 -193 807 -49 97 -150 258 -171 273 -3 3 -20 23 -38 45 -97 125 -286
288 -444 384 -171 105 -420 198 -606 226 -25 4 -54 9 -65 12 -24 5 -371 13
-376 9z"/>
</g>
</svg>
